<svg width="36" height="36" viewBox="0 0 36 36" fill="none" xmlns="http://www.w3.org/2000/svg">
<path d="M30.375 2.25H5.625C4.72989 2.25 3.87145 2.60558 3.23851 3.23851C2.60558 3.87145 2.25 4.72989 2.25 5.625L2.25 30.375C2.25 31.2701 2.60558 32.1286 3.23851 32.7615C3.87145 33.3944 4.72989 33.75 5.625 33.75H15.2754V23.0407H10.8457V18H15.2754V14.1581C15.2754 9.7882 17.877 7.37437 21.8616 7.37437C23.7698 7.37437 25.7653 7.71469 25.7653 7.71469V12.0038H23.5666C21.4003 12.0038 20.7246 13.3481 20.7246 14.727V18H25.5607L24.7873 23.0407H20.7246V33.75H30.375C31.2701 33.75 32.1286 33.3944 32.7615 32.7615C33.3944 32.1286 33.75 31.2701 33.75 30.375V5.625C33.75 4.72989 33.3944 3.87145 32.7615 3.23851C32.1286 2.60558 31.2701 2.25 30.375 2.25Z" fill="white"/>
</svg>
