<svg width="96" height="96" viewBox="0 0 96 96" fill="none" xmlns="http://www.w3.org/2000/svg">
<g clip-path="url(#clip0_1532_72750)">
<path d="M68 12H28C23.6 12 20 15.6 20 20V84L48 72L76 84V20C76 15.6 72.4 12 68 12Z" fill="black"/>
</g>
<defs>
<clipPath id="clip0_1532_72750">
<rect width="96" height="96" fill="white"/>
</clipPath>
</defs>
</svg>
