<svg width="36" height="36" viewBox="0 0 36 36" fill="none" xmlns="http://www.w3.org/2000/svg">
<g clip-path="url(#clip0_825_53400)">
<path d="M24.667 6H11.3337C9.86699 6 8.66699 7.2 8.66699 8.66667V30L18.0003 26L27.3337 30V8.66667C27.3337 7.2 26.1337 6 24.667 6ZM24.667 26L18.0003 23.0933L11.3337 26V8.66667H24.667V26Z" fill="#9E9E9E"/>
</g>
<defs>
<clipPath id="clip0_825_53400">
<rect width="32" height="32" fill="white" transform="translate(2 2)"/>
</clipPath>
</defs>
</svg>
